^C:\USERS\VLADIMIR\DOCUMENTS\VISUAL STUDIO 2010\PROJECTS\DBFTOEXCEL\DBFTOEXCEL\STDAFX.CPP
C:\USERS\VLADIMIR\DOCUMENTS\VISUAL STUDIO 2010\PROJECTS\DBFTOEXCEL\DBFTOEXCEL\DEBUG\DBFTOEXCEL.PCH
C:\USERS\VLADIMIR\DOCUMENTS\VISUAL STUDIO 2010\PROJECTS\DBFTOEXCEL\DBFTOEXCEL\DEBUG\STDAFX.OBJ
C:\USERS\VLADIMIR\DOCUMENTS\VISUAL STUDIO 2010\PROJECTS\DBFTOEXCEL\DBFTOEXCEL\DEBUG\VC100.PDB
^C:\USERS\VLADIMIR\DOCUMENTS\VISUAL STUDIO 2010\PROJECTS\DBFTOEXCEL\DBFTOEXCEL\ASSEMBLYINFO.CPP|C:\USERS\VLADIMIR\DOCUMENTS\VISUAL STUDIO 2010\PROJECTS\DBFTOEXCEL\DBFTOEXCEL\DBFTOEXCEL.CPP
C:\USERS\VLADIMIR\DOCUMENTS\VISUAL STUDIO 2010\PROJECTS\DBFTOEXCEL\DBFTOEXCEL\DEBUG\ASSEMBLYINFO.OBJ
^C:\USERS\VLADIMIR\DOCUMENTS\VISUAL STUDIO 2010\PROJECTS\DBFTOEXCEL\DBFTOEXCEL\ASSEMBLYINFO.CPP
C:\USERS\VLADIMIR\DOCUMENTS\VISUAL STUDIO 2010\PROJECTS\DBFTOEXCEL\DBFTOEXCEL\DEBUG\ASSEMBLYINFO.OBJ
^C:\USERS\VLADIMIR\APPDATA\LOCAL\TEMP\.NETFRAMEWORK,VERSION=V4.0.ASSEMBLYATTRIBUTES.CPP
C:\USERS\VLADIMIR\DOCUMENTS\VISUAL STUDIO 2010\PROJECTS\DBFTOEXCEL\DBFTOEXCEL\DEBUG\.NETFRAMEWORK,VERSION=V4.0.ASSEMBLYATTRIBUTES.OBJ
C:\USERS\VLADIMIR\DOCUMENTS\VISUAL STUDIO 2010\PROJECTS\DBFTOEXCEL\DBFTOEXCEL\DEBUG\VC100.PDB
^C:\USERS\VLADIMIR\DOCUMENTS\VISUAL STUDIO 2010\PROJECTS\DBFTOEXCEL\DBFTOEXCEL\DBFTOEXCEL.CPP
C:\USERS\VLADIMIR\DOCUMENTS\VISUAL STUDIO 2010\PROJECTS\DBFTOEXCEL\DBFTOEXCEL\DEBUG\DBFTOEXCEL.OBJ
C:\USERS\VLADIMIR\DOCUMENTS\VISUAL STUDIO 2010\PROJECTS\DBFTOEXCEL\DBFTOEXCEL\DEBUG\VC100.PDB
