^C:\USERS\VLADIMIR\DOCUMENTS\VISUAL STUDIO 2010\PROJECTS\DBFTOEXCEL\DBFTOEXCEL\DEBUG\.NETFRAMEWORK,VERSION=V4.0.ASSEMBLYATTRIBUTES.OBJ|C:\USERS\VLADIMIR\DOCUMENTS\VISUAL STUDIO 2010\PROJECTS\DBFTOEXCEL\DBFTOEXCEL\DEBUG\APP.RES|C:\USERS\VLADIMIR\DOCUMENTS\VISUAL STUDIO 2010\PROJECTS\DBFTOEXCEL\DBFTOEXCEL\DEBUG\ASSEMBLYINFO.OBJ|C:\USERS\VLADIMIR\DOCUMENTS\VISUAL STUDIO 2010\PROJECTS\DBFTOEXCEL\DBFTOEXCEL\DEBUG\DBFTOEXCEL.OBJ|C:\USERS\VLADIMIR\DOCUMENTS\VISUAL STUDIO 2010\PROJECTS\DBFTOEXCEL\DBFTOEXCEL\DEBUG\STDAFX.OBJ
/ERRORREPORT:PROMPT /OUT:"C:\Users\Vladimir\Documents\Visual Studio 2010\Projects\DBFToExcel\Debug\DBFToExcel.exe" /INCREMENTAL /NOLOGO /LIBPATH:"C:\Users\Vladimir\Documents\Visual Studio 2010\Projects\DBFToExcel\DBFToExcel\libxl-3.8.2.0\lib" libxl.lib kernel32.lib user32.lib gdi32.lib winspool.lib comdlg32.lib advapi32.lib shell32.lib ole32.lib oleaut32.lib uuid.lib odbc32.lib odbccp32.lib /ASSEMBLYRESOURCE:Debug\DBFToExcel.Form1.resources /MANIFEST /ManifestFile:"Debug\DBFToExcel.exe.intermediate.manifest" /MANIFESTUAC:"level='asInvoker' uiAccess='false'" /DEBUG /PDB:"C:\Users\Vladimir\Documents\Visual Studio 2010\Projects\DBFToExcel\Debug\DBFToExcel.pdb" /ASSEMBLYDEBUG /SUBSYSTEM:WINDOWS /TLBID:1 /ENTRY:"main" /DYNAMICBASE /FIXED:NO /NXCOMPAT /MACHINE:X86 Debug\app.res
Debug\AssemblyInfo.obj
Debug\DBFToExcel.obj
Debug\stdafx.obj
"Debug\.NETFramework,Version=v4.0.AssemblyAttributes.obj"
