^C:\USERS\VLADIMIR\DOCUMENTS\VISUAL STUDIO 2010\PROJECTS\DBFTOEXCEL\DBFTOEXCEL\DEBUG\DBFTOEXCEL.EXE.INTERMEDIATE.MANIFEST
C:\WINDOWS\GLOBALIZATION\SORTING\SORTDEFAULT.NLS
C:\WINDOWS\REGISTRATION\R00000000000D.CLB
C:\WINDOWS\MICROSOFT.NET\FRAMEWORK\V4.0.30319\CLR.DLL
D:\PROGRAM FILES (X86)\MICROSOFT SDKS\WINDOWS\V7.0A\BIN\MT.EXE.CONFIG
C:\USERS\VLADIMIR\DOCUMENTS\VISUAL STUDIO 2010\PROJECTS\DBFTOEXCEL\DEBUG\DBFTOEXCEL.EXE
