^C:\USERS\VLADIMIR\DOCUMENTS\VISUAL STUDIO 2010\PROJECTS\DBFTOEXCEL\DBFTOEXCEL\STDAFX.CPP
/c /I"C:\Users\Vladimir\Documents\Visual Studio 2010\Projects\DBFToExcel\DBFToExcel\libxl-3.8.2.0\include_c" /AI"D:\Program Files (x86)\Reference Assemblies\Microsoft\Framework\.NETFramework\v4.0" /Zi /clr:pure /nologo /W3 /WX- /O2 /Oy- /D WIN32 /D NDEBUG /D _UNICODE /D UNICODE /EHa /MD /GS /fp:precise /Zc:wchar_t /Zc:forScope /Yc"StdAfx.h" /Fp"Release\DBFToExcel.pch" /Fo"Release\\" /Fd"Release\vc100.pdb" /TP /FU"D:\Program Files (x86)\Reference Assemblies\Microsoft\Framework\.NETFramework\v4.0\System.Core.dll" /FU"D:\Program Files (x86)\Reference Assemblies\Microsoft\Framework\.NETFramework\v4.0\System.Data.dll" /FU"D:\Program Files (x86)\Reference Assemblies\Microsoft\Framework\.NETFramework\v4.0\System.dll" /FU"D:\Program Files (x86)\Reference Assemblies\Microsoft\Framework\.NETFramework\v4.0\System.Drawing.dll" /FU"D:\Program Files (x86)\Reference Assemblies\Microsoft\Framework\.NETFramework\v4.0\System.Windows.Forms.dll" /FU"D:\Program Files (x86)\Reference Assemblies\Microsoft\Framework\.NETFramework\v4.0\System.Xml.dll" /analyze- /errorReport:prompt /clr:nostdlib  C:\USERS\VLADIMIR\DOCUMENTS\VISUAL STUDIO 2010\PROJECTS\DBFTOEXCEL\DBFTOEXCEL\STDAFX.CPP
^C:\USERS\VLADIMIR\DOCUMENTS\VISUAL STUDIO 2010\PROJECTS\DBFTOEXCEL\DBFTOEXCEL\ASSEMBLYINFO.CPP
/c /I"C:\Users\Vladimir\Documents\Visual Studio 2010\Projects\DBFToExcel\DBFToExcel\libxl-3.8.2.0\include_c" /AI"D:\Program Files (x86)\Reference Assemblies\Microsoft\Framework\.NETFramework\v4.0" /Zi /clr:pure /nologo /W3 /WX- /O2 /Oy- /D WIN32 /D NDEBUG /D _UNICODE /D UNICODE /EHa /MD /GS /fp:precise /Zc:wchar_t /Zc:forScope /Yu"StdAfx.h" /Fp"Release\DBFToExcel.pch" /Fo"Release\\" /Fd"Release\vc100.pdb" /TP /FU"D:\Program Files (x86)\Reference Assemblies\Microsoft\Framework\.NETFramework\v4.0\System.Core.dll" /FU"D:\Program Files (x86)\Reference Assemblies\Microsoft\Framework\.NETFramework\v4.0\System.Data.dll" /FU"D:\Program Files (x86)\Reference Assemblies\Microsoft\Framework\.NETFramework\v4.0\System.dll" /FU"D:\Program Files (x86)\Reference Assemblies\Microsoft\Framework\.NETFramework\v4.0\System.Drawing.dll" /FU"D:\Program Files (x86)\Reference Assemblies\Microsoft\Framework\.NETFramework\v4.0\System.Windows.Forms.dll" /FU"D:\Program Files (x86)\Reference Assemblies\Microsoft\Framework\.NETFramework\v4.0\System.Xml.dll" /analyze- /errorReport:prompt /clr:nostdlib  C:\USERS\VLADIMIR\DOCUMENTS\VISUAL STUDIO 2010\PROJECTS\DBFTOEXCEL\DBFTOEXCEL\ASSEMBLYINFO.CPP
^C:\USERS\VLADIMIR\APPDATA\LOCAL\TEMP\.NETFRAMEWORK,VERSION=V4.0.ASSEMBLYATTRIBUTES.CPP
/c /I"C:\Users\Vladimir\Documents\Visual Studio 2010\Projects\DBFToExcel\DBFToExcel\libxl-3.8.2.0\include_c" /Zi /clr:pure /nologo /W3 /WX- /O2 /Oy- /D WIN32 /D NDEBUG /D _UNICODE /D UNICODE /EHa /MD /GS /fp:precise /Zc:wchar_t /Zc:forScope /Fo"Release\\" /Fd"Release\vc100.pdb" /TP /analyze- /errorReport:prompt C:\USERS\VLADIMIR\APPDATA\LOCAL\TEMP\.NETFRAMEWORK,VERSION=V4.0.ASSEMBLYATTRIBUTES.CPP
^C:\USERS\VLADIMIR\DOCUMENTS\VISUAL STUDIO 2010\PROJECTS\DBFTOEXCEL\DBFTOEXCEL\DBFTOEXCEL.CPP
/c /I"C:\Users\Vladimir\Documents\Visual Studio 2010\Projects\DBFToExcel\DBFToExcel\libxl-3.8.2.0\include_c" /AI"D:\Program Files (x86)\Reference Assemblies\Microsoft\Framework\.NETFramework\v4.0" /Zi /clr:pure /nologo /W3 /WX- /O2 /Oy- /D WIN32 /D NDEBUG /D _UNICODE /D UNICODE /EHa /MD /GS /fp:precise /Zc:wchar_t /Zc:forScope /Yu"StdAfx.h" /Fp"Release\DBFToExcel.pch" /Fo"Release\\" /Fd"Release\vc100.pdb" /TP /FU"D:\Program Files (x86)\Reference Assemblies\Microsoft\Framework\.NETFramework\v4.0\System.Core.dll" /FU"D:\Program Files (x86)\Reference Assemblies\Microsoft\Framework\.NETFramework\v4.0\System.Data.dll" /FU"D:\Program Files (x86)\Reference Assemblies\Microsoft\Framework\.NETFramework\v4.0\System.dll" /FU"D:\Program Files (x86)\Reference Assemblies\Microsoft\Framework\.NETFramework\v4.0\System.Drawing.dll" /FU"D:\Program Files (x86)\Reference Assemblies\Microsoft\Framework\.NETFramework\v4.0\System.Windows.Forms.dll" /FU"D:\Program Files (x86)\Reference Assemblies\Microsoft\Framework\.NETFramework\v4.0\System.Xml.dll" /analyze- /errorReport:prompt /clr:nostdlib  C:\USERS\VLADIMIR\DOCUMENTS\VISUAL STUDIO 2010\PROJECTS\DBFTOEXCEL\DBFTOEXCEL\DBFTOEXCEL.CPP
