^C:\USERS\VLADIMIR\DOCUMENTS\VISUAL STUDIO 2010\PROJECTS\DBFTOEXCEL\DBFTOEXCEL\RELEASE\.NETFRAMEWORK,VERSION=V4.0.ASSEMBLYATTRIBUTES.OBJ|C:\USERS\VLADIMIR\DOCUMENTS\VISUAL STUDIO 2010\PROJECTS\DBFTOEXCEL\DBFTOEXCEL\RELEASE\APP.RES|C:\USERS\VLADIMIR\DOCUMENTS\VISUAL STUDIO 2010\PROJECTS\DBFTOEXCEL\DBFTOEXCEL\RELEASE\ASSEMBLYINFO.OBJ|C:\USERS\VLADIMIR\DOCUMENTS\VISUAL STUDIO 2010\PROJECTS\DBFTOEXCEL\DBFTOEXCEL\RELEASE\DBFTOEXCEL.OBJ|C:\USERS\VLADIMIR\DOCUMENTS\VISUAL STUDIO 2010\PROJECTS\DBFTOEXCEL\DBFTOEXCEL\RELEASE\STDAFX.OBJ
/ERRORREPORT:PROMPT /OUT:"C:\Users\Vladimir\Documents\Visual Studio 2010\Projects\DBFToExcel\Release\DBFToExcel.exe" /INCREMENTAL:NO /NOLOGO /LIBPATH:"C:\Users\Vladimir\Documents\Visual Studio 2010\Projects\DBFToExcel\DBFToExcel\libxl-3.8.2.0\lib" libxl.lib kernel32.lib user32.lib gdi32.lib winspool.lib comdlg32.lib advapi32.lib shell32.lib ole32.lib oleaut32.lib uuid.lib odbc32.lib odbccp32.lib /ASSEMBLYRESOURCE:Release\DBFToExcel.Form1.resources /MANIFEST /ManifestFile:"Release\DBFToExcel.exe.intermediate.manifest" /MANIFESTUAC:"level='asInvoker' uiAccess='false'" /DEBUG /PDB:"C:\Users\Vladimir\Documents\Visual Studio 2010\Projects\DBFToExcel\Release\DBFToExcel.pdb" /SUBSYSTEM:WINDOWS /TLBID:1 /ENTRY:"main" /DYNAMICBASE /FIXED:NO /NXCOMPAT /MACHINE:X86 Release\app.res
Release\AssemblyInfo.obj
Release\DBFToExcel.obj
Release\stdafx.obj
"Release\.NETFramework,Version=v4.0.AssemblyAttributes.obj"
